{
    "faqs": [
        {
            "main": "¿Cuál es el objetivo de OneOpp?",
            "detail": "Para los clientes: Acceder a descuentos a través de la App, sin necesidad de intermediarios ni bancos y sin pagar un costo extra por canjear el cupón. Para los comercios: Brindarle la posibilidad de lanzar descuentos en una plataforma y llegar a un público que no necesariamente conozca el comercio. Dándole publicidad a un costo mínimo y sin generarle gastos por las ventas ocasionadas relacionadas a la publicación de ofertas en la plataforma."
        },
        {
            "main": "¿OneOpp es un sitio/app de venta online?",
            "detail": "OneOpp no es un sitio de venta Online."
        },
        {
            "main": "¿Qué tipo de ofertas puedo encontrar en OneOpp?",
            "detail": "Ofertas del 15,20,30,40,50,60,70 % off, 2x1 y 3x1 por pago en efectivo, y cualquier tipo de oferta que el comercio quiera lanzar siempre y cuando OneOpp considere que es ventajosa para el usuario."
        },
        {
            "main": "¿Qué sucede si hay gente agresiva o publicando contenido inapropiado?",
            "detail": "OneOpp dará de baja inmediatamente la cuenta de esas personas e iniciará acciones legales a las mismas en caso de ser necesario."
        },
        {
            "main": "¿Qué pasa si mi código para canjear el cupón no funciona?",
            "detail": "Si dispones de un código (cupón) y no funciona al momento del canje, debes repasar las condiciones especificadas en la comunicación a través de la cual has conseguido tu código promocional. Tené en cuenta que cada código promocional tiene una serie de condiciones específicas como la fecha de inicio y caducidad."
        },
        {
            "main": "¿Mis datos personales están seguros?",
            "detail": "Si, utilizamos lo último en tecnología para salvaguardar los datos de todos."
        },
        {
            "main": "¿Qué ventajas hay si me registro como comercio?",
            "detail": "Podes llegar a más clientes. Miles de usuarios van a ver la publicación de tus descuentos por la app. Podes enviar descuentos por zona, cuando quieras y por el tiempo que quieras. Sin intermediarios, sin tarjetas ni bancos."
        },
        {
            "main": "¿Qué ventajas hay si me registro como usuario?",
            "detail": "Accedes gratuitamente a la posibilidad de obtener cupones de descuentos, pudiendo filtrar x zona, rubro etc. y sin pagar comisiones para obtener el descuento."
        },
        {
            "main": "¿Cuantos cupones puede tomar un usuario? ¿Puede tomar distintos cupones de distintos descuentos? ¿Cuántos?",
            "detail": "El usuario puede tomar un cupón por comercio. Pudiendo tomar un sin número de cupones siempre que sean de diferentes comercios. También el usuario puede compartir un descuento para que otro usuario aproveche la oportunidad."
        },
        {
            "main": "¿Cuánto tiempo tengo para canjear un cupón?",
            "detail": "El tiempo para canjear el cupón es determinado por el comercio por lo que al momento de tomar un cupón es importante que mires el campo: 'VIGENCIA DEL CUPON/DESCUENTO'."
        },
        {
            "main": "¿Cómo puedo contactar a OneOpp para dar de alta un comercio?",
            "detail": "www.one-opp.com"
        },
        {
            "main": "¿Cómo publico una oferta?",
            "detail": "Ingresa a www.one-opp.com, regístrate y una vez que te logueas en la web mira el instructivo para publicar ofertas. Es fácil, y rápido."
        },
        {
            "main": "¿Cómo tomo un cupón y cómo lo canjeo?",
            "detail": "Desde la aplicación móvil vas a poder ver todos los descuentos, ingresas en el que te gusta y podes tomar un cupón. Luego se te asigna un código QR y te acercas al comercio a canjearlo antes que se te termine el tiempo para hacerlo."
        },
        {
            "main": "¿Tengo que pagar para lanzar descuentos?",
            "detail": "Tenes 1 mes gratis para probar la plataforma y luego se cobrará un fee mensual por el uso de la Web para lanzar descuentos."
        },
        {
            "main": "¿Tengo que pagar para utilizar la aplicación desde el móvil?",
            "detail": "No, es gratuita."
        },
        {
            "main": "¿Puedo devolver el producto que canjeo?",
            "detail": "Esto dependerá de las condiciones impuestas por el comercio que lanzo el descuento. Una vez canjeado el cupón, OneOpp no se responsabiliza por la calidad y estado del producto. La devolución del mismo quedará a consideración de comercio."
        },
        {
            "main": "¿Puedo cancelar un cupón?",
            "detail": "Sí, una vez tomado se puede cancelar el cupón y lo podrás volver a tomar cuando quieras."
        },
        {
            "main": "¡He olvidado mi contraseña! ¿Cómo puedo recuperarla para acceder a OneOpp?",
            "detail": "Si sos comercio, entra al login de OneOpp y elegí “olvidé mi contraseña”, luego seguí los pasos y listo. O desde la app podés realizar el recupero de tu contraseña si sos un usuario que busca descuentos."
        },
        {
            "main": "¿Cómo elimino una notificación?",
            "detail": "Simplemente desliza para un costado y se elimina."
        },
        {
            "main": "¿Dónde puedo ver el estado de mis cupones?",
            "detail": "Podes ver tus cupones en 'Mis cupones', ahí vas a ver los cupones 'pendientes de canje', en la pestaña 'activos'. En la pestaña 'inactivos' vas a ver los cupones canjeados, inactivos y rechazados."
        },
        {
            "main": "¿Qué relación tiene OneOpp con los delivery de los comercios?",
            "detail": "OneOpp no tiene relación ninguna con el servicio de delivery de los comercios."
        },
        {
            "main": "Hice un pedido y el estado del delivery sigue en proceso, que hago?",
            "detail": "En ese caso depende exclusivamente del comercio. Hasta que no acepten o rechacen el pedido, el estado del mismo seguirá en proceso."
        },
        {
            "main": "Hice un pedido y el delivery fue rechazado.",
            "detail": "El comercio puede aceptar o rechazar el pedido. Te llegara una notificación del comercio con el motivo del rechazo y un número de teléfono para que puedas comunicarte con ellos."
        },
        {
            "main": "Hice un pedido y el delivery fue aceptado, pero no llega.",
            "detail": "Te llegara una notificación del comercio con el tiempo estimado de entrega de lo que hayas pedido. En esa notificación tenes el teléfono del comercio para llamar y consultar el estado del envío."
        },
        {
            "main": "OneOpp tiene Delivery?",
            "detail": "OneOpp te da la posibilidad de elegir la opción 'Delivery' en aquellos cupones lanzados por comercios con servicio de delivery.\nEn este caso, es el comercio quien entregara el producto en tu domicilio.\nOneOpp no cuenta con servicio de Delivery propio, siendo los comercios los responsables de la aceptación, rechazo, demoras, entregas y cobro (en caso de corresponder) del servicio de delivery.\nOneOpp no cobra comisiones por el servicio de delivery ni a los comercios adheridos ni a los usuarios de la app."
        },
        {
            "main": "¿Cómo sé que el comercio tiene delivery?",
            "detail": "Lo podés ver entrando al detalle del descuento. Vas a ver que dice comercio con o sin delivery."
        },
        {
            "main": "¿Qué pasa si tomo un cupón y al momento de cargar los datos de delivery me arrepiento y quiero ir a buscar el producto?",
            "detail": "Al final del formulario de carga de datos para el delivery, tenes la opción para cancelar. Esa acción te llevara a la pantalla anterior y vas a poder elegir la opción take away."
        },
        {
            "main": "¿Qué pasa una vez que cargo los datos de delivery y acepto el envío?",
            "detail": "Una vez que cargas los datos para el delivery y aceptas, vas a ser redirigido al home de la App y ahí podés ver el estado del delivery.\nLos estados son en proceso, aceptado y rechazado."
        },
        {
            "main": "¿Cómo se canjea el cupón si acepto el delivery?",
            "detail": "En este caso, si el comercio acepta enviarte el pedido, el cupón se canjea automáticamente, no tenes que hacer nada. Te va a quedar guardado en mis cupones inactivos, en estado canjeado"
        },
        {
            "main": "¿Qué pasa con el cupón si el comercio rechaza el delivery?",
            "detail": "En este caso el cupón pasa a un estado inactivo de manera automática. Va a quedar guardado en tus cupones inactivos con el estado rechazado."
        },
        {
            "main": "¿Puedo volver a tomar un cupón que fue rechazado?",
            "detail": "No vas a poder volver a tomar un cupón para ese descuento en particular. En ese caso podés comunicarte con el comercio para solicitar más información de la cancelación del cupón de descuento."
        },
        {
            "main": "¿Dónde reclamo si un pedido no es entregado?",
            "detail": "Al momento en que el comercio acepta tu pedido, te llegara una notificación con los datos del negocio. Ante cualquier situación deberás comunicarte con el comercio emisor del cupón."
        },
        {
            "main": "¿Qué pasa si elijo la opción take away?",
            "detail": "En ese caso el cupón queda guardado en tus cupones. Solo tenes que canjearlo en el comercio antes que se pase el tiempo de vida del descuento."
        },
        {
            "main": "¿Todos los cupones cuentan con opción “delivery”?",
            "detail": "No, solo aquellos cupones lanzados por comercios que cuenten con este servicio.\nLos cupones con opción 'delivery' están identificados tanto en el home como en el detalle del cupón. (con el icono “de una moto” y la aclaración “comercio con delivery” respectivamente)."
        },
        {
            "main": "¿Tienen costo extra los envíos?",
            "detail": "OneOpp no cobra comisiones por los cupones canjeados, ni por la entrega de los productos, siendo absoluta responsabilidad del comercio el cobro de los envíos."
        },
        {
            "main": "¿Como me comunico con los comercios a los que hice un pedido de delivery?",
            "detail": "Cuando tomes un descuento por delivery, te va a llegar una notificación con el número de teléfono del comercio."
        }
    ]
}
